…
  death = c(rep(1, 54), rep(0, 138)),
  stage = c(
    rep("Stage I", 7), rep("Stage II", 26), rep("Stage III", 21),
    rep("Stage I", 60), rep("Stage II", 70), rep("Stage III", 8)
  ),
  receptor = c(
    rep("Low", 2), rep("High", 5), rep("Low", 9), rep("High", 17),
    rep("Low", 12), rep("High", 9), rep("Low", 10), rep("High", 50),
    rep("Low", 13), rep("High", 57), rep("Low", 2), rep("High", 6)
  )
)
dat
```

    ## # A tibble: 192 x 4
    ##       id death stage    receptor
    ##    <int> <dbl> <chr>    <chr>   
    ##  1     1     1 Stage I  Low     
    ##  2     2     1 Stage I  Low     
    ##  3     3     1 Stage I  High    
    ##  4     4     1 Stage I  High    
    ##  5     5     1 Stage I  High    
    ##  6     6     1 Stage I  High    
    ##  7     7     1 Stage I  High    
    ##  8     8     1 Stage II Low     
    ##  9     9     1 Stage II Low     
    ## 10    10     1 Stage II Low     
    ## # ... with 182 more rows
…
